Mapping Ocean Stories
…
---
# Breaking down into words

```r
kane %>%
  unnest_tokens(word, text, token='words') 
```

```
## # A tibble: 8,732 × 3
##    initials group word     
##    <chr>    <int> <chr>    
##  1 JK           1 basically
##  2 CH           2 that’s   
##  3 CH           2 great    
##  4 CH           2 perfect  
##  5 CH           2 so       
##  6 CH           2 then     
##  7 CH           2 we       
##  8 CH           2 can      
##  9 CH           2 go       
## 10 CH           2 ahead    
## # ℹ 8,722 more rows
```

---
# Parts of Speech

```r
kane %>%
  unnest_tokens(word, text, token='words') %>% 
  inner_join(parts_of_speech, relationship = "many-to-many")
```

```
## # A tibble: 19,502 × 4
##    initials group word      pos                  
##    <chr>    <int> <chr>     <chr>                
##  1 JK           1 basically Adverb               
##  2 CH           2 great     Adjective            
##  3 CH           2 great     Adverb               
##  4 CH           2 great     Noun                 
##  5 CH           2 perfect   Adjective            
##  6 CH           2 perfect   Noun                 
##  7 CH           2 perfect   Verb (usu participle)
##  8 CH           2 perfect   Verb (transitive)    
##  9 CH           2 so        Noun                 
## 10 CH           2 so        Adverb               
## # ℹ 19,492 more rows
```

---
# Prepositions and parts of speech

```r
kane %>%
  unnest_tokens(word, text, token='words') %>% 
  inner_join(parts_of_speech, relationship = "many-to-many") %>% 
  filter(pos == "Preposition") %>%
  count(word) %>%
  arrange(desc(n))
```

```
## # A tibble: 48 × 2
##    word      n
##    <chr> <int>
##  1 of      202
##  2 to      187
##  3 a       173
##  4 in      118
##  5 but      99
##  6 up       74
##  7 for      57
##  8 on       57
##  9 like     53
## 10 out      47
## # ℹ 38 more rows
```
